{"frames": [

{
	"filename": "cleaver.png",
	"frame": {"x":0,"y":0,"w":16,"h":16},
	"rotated": false,
	"trimmed": false,
	"spriteSourceSize": {"x":0,"y":0,"w":16,"h":16},
	"sourceSize": {"w":16,"h":16}
},
{
	"filename": "crooked-sword.png",
	"frame": {"x":0,"y":16,"w":16,"h":16},
	"rotated": false,
	"trimmed": false,
	"spriteSourceSize": {"x":0,"y":0,"w":16,"h":16},
	"sourceSize": {"w":16,"h":16}
},
{
	"filename": "blood-wand.png",
	"frame": {"x":0,"y":32,"w":16,"h":16},
	"rotated": false,
	"trimmed": false,
	"spriteSourceSize": {"x":0,"y":0,"w":16,"h":16},
	"sourceSize": {"w":16,"h":16}
},
{
	"filename": "basic-dagger.png",
	"frame": {"x":0,"y":48,"w":16,"h":16},
	"rotated": false,
	"trimmed": false,
	"spriteSourceSize": {"x":0,"y":0,"w":16,"h":16},
	"sourceSize": {"w":16,"h":16}
}],
"meta": {
	"app": "http://www.codeandweb.com/texturepacker",
	"version": "1.0",
	"image": "redot-atlas.png",
	"format": "RGBA8888",
	"size": {"w":16,"h":64},
	"scale": "1",
	"smartupdate": "$TexturePacker:SmartUpdate:d69e49a1569bff82aff06cd0a95ae16c:180c28f95d9a3ae6bd369779145d2e9d:efc27857096f1d112febd89ba88f0b1c$"
}
}
